<?xml version="1.0" encoding="utf-8"?>
<!-- Generator: Adobe Illustrator 27.4.1, SVG Export Plug-In . SVG Version: 6.00 Build 0)  -->
<svg version="1.1" id="Layer_1" xmlns="http://www.w3.org/2000/svg" xmlns:xlink="http://www.w3.org/1999/xlink" x="0px" y="0px"
	 viewBox="0 0 82 82" style="enable-background:new 0 0 82 82;" xml:space="preserve">
<style type="text/css">
	.st0{fill:#FFFFFF;}
</style>
<g id="newsletter-2" transform="translate(632.16 1529.324)">
	<g id="Group_1171" transform="translate(1.737 0)">
		<g id="Group_1170">
			<path id="Path_219" class="st0" d="M-559.3-1496.8l-14-8.5c-0.1-0.1-0.2-0.1-0.3-0.1v-2.9c0-0.8-0.7-1.4-1.5-1.4h-5.6l-11.7-6.9
				c-0.5-0.3-1.1-0.3-1.6,0l-11.7,6.9h-7.1c-0.8,0-1.5,0.6-1.5,1.4v2.9c-0.1,0-0.2,0.1-0.3,0.1l-14,8.5c-0.4,0.2-0.7,0.7-0.7,1.2
				v36.7c0,0.8,0.7,1.4,1.5,1.4h67.7c0.8,0,1.5-0.6,1.5-1.4v-36.7C-558.6-1496.1-558.8-1496.6-559.3-1496.8z M-593.2-1513.7l6.8,4
				H-600L-593.2-1513.7z M-611.3-1506.9h34.6v31.8c0,0,0,0,0,0l-5.1,2.9l-12.2-6.3c-0.5-0.2-1-0.2-1.5,0l-11.2,6l-4.6-2.6
				c0,0,0,0,0,0L-611.3-1506.9z M-626.3-1494.8l12-7.3v25.3l-12-6.9V-1494.8z M-626.3-1480.4l16.7,9.5l-16.7,9V-1480.4z
				 M-623.3-1460.3l28.6-15.3l30,15.3H-623.3z M-561.6-1461.9l-17.1-8.8l17.1-9.7L-561.6-1461.9z M-561.6-1483.7l-12,6.9v-25.3
				l12,7.3V-1483.7z"/>
			<path id="Path_220" class="st0" d="M-604.9-1492.8h17.3c0.8,0,1.4-0.6,1.4-1.4l0,0v-8.7c0-0.8-0.6-1.4-1.4-1.4l0,0h-17.3
				c-0.8,0-1.4,0.6-1.4,1.4l0,0v8.7C-606.4-1493.4-605.7-1492.8-604.9-1492.8C-604.9-1492.8-604.9-1492.8-604.9-1492.8z
				 M-603.5-1501.4h14.4v5.8h-14.4L-603.5-1501.4z"/>
			<rect id="Rectangle_637" x="-606.3" y="-1490.1" class="st0" width="23.1" height="2.9"/>
			<rect id="Rectangle_638" x="-606.3" y="-1484.4" class="st0" width="23.1" height="2.9"/>
			<path id="Path_221" class="st0" d="M-565.8-1508.2c0.4,0,0.8-0.2,1-0.4l5.1-5.1c0.6-0.5,0.6-1.5,0.1-2s-1.5-0.6-2-0.1
				c0,0,0,0-0.1,0.1l-5.1,5.1c-0.6,0.6-0.6,1.5,0,2C-566.6-1508.3-566.2-1508.2-565.8-1508.2L-565.8-1508.2z"/>
			<path id="Path_222" class="st0" d="M-623.1-1508.6c0.6,0.6,1.5,0.6,2,0s0.6-1.5,0-2l0,0l-5.1-5.1c-0.6-0.5-1.5-0.5-2,0.1
				c-0.5,0.6-0.5,1.4,0,2L-623.1-1508.6z"/>
			<path id="Path_223" class="st0" d="M-578.6-1515.5c0.2,0.1,0.4,0.1,0.5,0.1c0.6,0,1.1-0.4,1.3-0.9l2.9-7.2
				c0.3-0.7-0.1-1.6-0.8-1.9c-0.7-0.3-1.5,0.1-1.8,0.8l-2.9,7.2C-579.7-1516.6-579.3-1515.8-578.6-1515.5
				C-578.6-1515.5-578.6-1515.5-578.6-1515.5z"/>
			<path id="Path_224" class="st0" d="M-609.7-1516.3c0.2,0.5,0.8,0.9,1.3,0.9c0.2,0,0.4,0,0.5-0.1c0.7-0.3,1.1-1.1,0.8-1.9
				c0,0,0,0,0,0l-2.9-7.2c-0.3-0.7-1.2-1.1-1.9-0.8c-0.7,0.3-1.1,1.1-0.8,1.8L-609.7-1516.3z"/>
		</g>
	</g>
</g>
</svg>
