<svg xmlns="http://www.w3.org/2000/svg" width="93.014" height="93.439" viewBox="0 0 93.014 93.439">
  <g id="coffee" transform="translate(-1.163 0)" opacity="0.699">
    <g id="Group_32" data-name="Group 32" transform="translate(50.324 0)">
      <g id="Group_31" data-name="Group 31">
        <path id="Path_36" data-name="Path 36" d="M278.458,18.009c3.592-2.9,4.405-6,4.455-8.095.121-5.087-3.9-8.81-4.355-9.218A2.753,2.753,0,1,0,274.9,4.81c.026.023,2.571,2.4,2.51,4.974-.032,1.369-.821,2.658-2.41,3.942-3.592,2.9-4.405,6-4.455,8.095-.121,5.088,3.9,8.81,4.355,9.218a2.753,2.753,0,0,0,3.67-4.1c-.723-.657-2.584-2.837-2.52-5C276.088,20.569,276.876,19.286,278.458,18.009Z" transform="translate(-270.541 0)" fill="#fdf8f8"/>
      </g>
    </g>
    <g id="Group_34" data-name="Group 34" transform="translate(32.858 0)">
      <g id="Group_33" data-name="Group 33">
        <path id="Path_37" data-name="Path 37" d="M182.753,18.009c3.592-2.9,4.405-6,4.455-8.095.121-5.087-3.9-8.81-4.355-9.218a2.753,2.753,0,0,0-3.659,4.114c.026.023,2.571,2.4,2.51,4.974-.032,1.369-.821,2.658-2.41,3.942-3.592,2.9-4.405,6-4.455,8.095-.121,5.088,3.9,8.81,4.355,9.218a2.753,2.753,0,0,0,3.67-4.1c-.722-.657-2.584-2.837-2.52-5C180.383,20.569,181.172,19.286,182.753,18.009Z" transform="translate(-174.836 0)" fill="#fdf8f8"/>
      </g>
    </g>
    <g id="Group_36" data-name="Group 36" transform="translate(1.163 40.15)">
      <g id="Group_35" data-name="Group 35">
        <path id="Path_38" data-name="Path 38" d="M80.184,224.774H76.926v-2.019A2.753,2.753,0,0,0,74.173,220H3.916a2.753,2.753,0,0,0-2.753,2.753v14.528c0,12.837,7.106,24.126,17.773,30.5H3.917a2.753,2.753,0,1,0,0,5.506H74.173a2.753,2.753,0,1,0,0-5.506H59.152a36.938,36.938,0,0,0,14.091-15.025h6.94a13.993,13.993,0,1,0,0-27.987ZM71.42,237.283c0,16.819-14.524,30.5-32.376,30.5S6.669,254.1,6.669,237.283V225.508H71.42v11.775Zm8.763,9.972H75.447a34.259,34.259,0,0,0,1.479-9.972v-7h3.258a8.488,8.488,0,0,1,0,16.976Z" transform="translate(-1.163 -220.002)" fill="#fdf8f8"/>
      </g>
    </g>
    <g id="Group_38" data-name="Group 38" transform="translate(15.392 0)">
      <g id="Group_37" data-name="Group 37">
        <path id="Path_39" data-name="Path 39" d="M87.048,18.01c3.592-2.9,4.405-6,4.455-8.095.121-5.087-3.9-8.81-4.355-9.218a2.753,2.753,0,0,0-3.659,4.114c.026.023,2.571,2.4,2.51,4.974-.032,1.369-.821,2.658-2.41,3.942-3.592,2.9-4.405,6-4.455,8.095-.121,5.087,3.9,8.81,4.355,9.218a2.753,2.753,0,1,0,3.659-4.114c-.026-.023-2.571-2.4-2.51-4.974C84.67,20.583,85.459,19.293,87.048,18.01Z" transform="translate(-79.131 -0.001)" fill="#fdf8f8"/>
      </g>
    </g>
  </g>
</svg>
